\relax 
\select@language{english}
\@writefile{toc}{\select@language{english}}
\@writefile{lof}{\select@language{english}}
\@writefile{lot}{\select@language{english}}
\@writefile{toc}{\contentsline {section}{\numberline {1}Introduction}{1}}
\newlabel{sec:Intro}{{1}{1}}
\citation{kececioglu1995exact}
\citation{bafna1996genome}
\citation{christie19983}
\citation{berman20021}
\citation{berman1999some}
\citation{caprara1999sorting}
\citation{hannenhalli1995transforming}
\citation{tannier2007advances}
\citation{bader2001linear}
\citation{bafna1998sorting}
\citation{christie1998genome}
\citation{elias20061}
\citation{bulteau2012sorting}
\@writefile{toc}{\contentsline {section}{\numberline {2}Definitions}{3}}
\newlabel{sec:def}{{2}{3}}
\@writefile{toc}{\contentsline {subsection}{\numberline {2.1}Reversal}{3}}
\@writefile{toc}{\contentsline {subsection}{\numberline {2.2}Transposition}{4}}
\@writefile{toc}{\contentsline {subsection}{\numberline {2.3}Breakpoints}{4}}
\@writefile{toc}{\contentsline {subsection}{\numberline {2.4}Strips}{4}}
\@writefile{toc}{\contentsline {subsection}{\numberline {2.5}Longest Increasing and Decreasing Subsequences}{5}}
\@writefile{toc}{\contentsline {subsection}{\numberline {2.6}Entropy}{5}}
\@writefile{toc}{\contentsline {subsection}{\numberline {2.7}Left and Right Coding}{5}}
\@writefile{toc}{\contentsline {subsection}{\numberline {2.8}Correct Prefix and Suffix}{6}}
\@writefile{toc}{\contentsline {subsection}{\numberline {2.9}Inversions}{6}}
\citation{oliveira2015problema}
\@writefile{lof}{\contentsline {figure}{\numberline {1}{\ignorespaces Breakpoints graph of permutation $(2\tmspace  +\thickmuskip {.2777em} 1\tmspace  +\thickmuskip {.2777em} 3\tmspace  +\thickmuskip {.2777em} 6\tmspace  +\thickmuskip {.2777em} 4\tmspace  +\thickmuskip {.2777em} 5)$, where solid lines represent black labeled edges, and dashed lines represent gray labeled edges.}}{7}}
\newlabel{fig:bg}{{1}{7}}
\@writefile{toc}{\contentsline {subsection}{\numberline {2.10}Cycles}{7}}
\citation{caprara1997sorting}
\citation{chen2013sorting}
\@writefile{lof}{\contentsline {figure}{\numberline {2}{\ignorespaces Breakpoints graph of permutation $(2\tmspace  +\thickmuskip {.2777em} 1\tmspace  +\thickmuskip {.2777em} 3\tmspace  +\thickmuskip {.2777em} 6\tmspace  +\thickmuskip {.2777em} 4\tmspace  +\thickmuskip {.2777em} 5)$ with the extra edges in $\mathaccentV {bar}016{c}_b(\pi )$, where solid lines represent black labeled edges, and dashed lines represent gray labeled edges.}}{8}}
\newlabel{fig:bg_extra}{{2}{8}}
\@writefile{lof}{\contentsline {figure}{\numberline {3}{\ignorespaces Two possible maximal decompositions of permutation $\pi = (2\tmspace  +\thickmuskip {.2777em} 1\tmspace  +\thickmuskip {.2777em} 3\tmspace  +\thickmuskip {.2777em} 6\tmspace  +\thickmuskip {.2777em} 4\tmspace  +\thickmuskip {.2777em} 5)$ in alternating cycles. Solid lines represent black edges, and dashed lines represent gray edges. Red and yellow oriented edges represent cycles in $G_b(\pi )$, and blue edges are the ones in $\mathaccentV {bar}016{c}_b(\pi )$.}}{8}}
\newlabel{fig:decom1}{{3}{8}}
\@writefile{toc}{\contentsline {section}{\numberline {3}Methodology}{9}}
\@writefile{toc}{\contentsline {subsection}{\numberline {3.1}Training Data}{9}}
\newlabel{sec:train}{{3.1}{9}}
\@writefile{toc}{\contentsline {subsection}{\numberline {3.2}Classifier}{10}}
\@writefile{toc}{\contentsline {subsection}{\numberline {3.3}Workflow}{10}}
\@writefile{lot}{\contentsline {table}{\numberline {1}{\ignorespaces Description of the characteristics considered when constructing the feature vector, where $b$ is the index of the feature in $F$.}}{11}}
\newlabel{tab:features}{{1}{11}}
\@writefile{lot}{\contentsline {table}{\numberline {2}{\ignorespaces Final feature vector calculations for permutations $\pi = (10\tmspace  +\thickmuskip {.2777em} 3\tmspace  +\thickmuskip {.2777em} 4\tmspace  +\thickmuskip {.2777em} 5\tmspace  +\thickmuskip {.2777em} 9\tmspace  +\thickmuskip {.2777em} 8\tmspace  +\thickmuskip {.2777em} 6\tmspace  +\thickmuskip {.2777em} 7\tmspace  +\thickmuskip {.2777em} 1\tmspace  +\thickmuskip {.2777em} 2)$ and $\pi ^m = (10\tmspace  +\thickmuskip {.2777em} 9\tmspace  +\thickmuskip {.2777em} 8\tmspace  +\thickmuskip {.2777em} 3\tmspace  +\thickmuskip {.2777em} 4\tmspace  +\thickmuskip {.2777em} 5\tmspace  +\thickmuskip {.2777em} 6\tmspace  +\thickmuskip {.2777em} 7\tmspace  +\thickmuskip {.2777em} 1\tmspace  +\thickmuskip {.2777em} 2)$.}}{12}}
\newlabel{tab:feat_example}{{2}{12}}
\@writefile{lof}{\contentsline {figure}{\numberline {4}{\ignorespaces Workflow of the project}}{13}}
\newlabel{fig:workflow}{{4}{13}}
\@writefile{toc}{\contentsline {subsection}{\numberline {3.4}Evaluation}{13}}
\newlabel{sec:eval}{{3.4}{13}}
\citation{oliveira2015problema}
\citation{dias2014improved}
\citation{rahman2008approximation}
\citation{tesler2002grimm}
\citation{lin2004further}
\citation{bafna1998sorting}
\citation{walter1998reversal}
\@writefile{toc}{\contentsline {section}{\numberline {4}Results}{14}}
\@writefile{toc}{\contentsline {subsection}{\numberline {4.1}Average Distance}{15}}
\@writefile{lof}{\contentsline {figure}{\numberline {5}{\ignorespaces Average Distance returned by each algorithm for different permutations sizes. An extra ``Upper Bound'' line was added in gray, denoting the upper bound $\frac  {2n}{10}$ on the distance.}}{15}}
\newlabel{fig:average}{{5}{15}}
\@writefile{toc}{\contentsline {subsection}{\numberline {4.2}Champion Percentage}{15}}
\@writefile{lof}{\contentsline {figure}{\numberline {6}{\ignorespaces Champion Percentage values for each algorithm for different permutation sizes. When two algorithms reach the same best result, they both count as champions (for that reason, the Champion Percentage may sum up to more than $100\%$ for some permutation sizes).}}{16}}
\newlabel{fig:champion}{{6}{16}}
\@writefile{toc}{\contentsline {subsection}{\numberline {4.3}Maximum Approximation Factor}{16}}
\@writefile{lof}{\contentsline {figure}{\numberline {7}{\ignorespaces Maximum Approximation Factor for each algorithm for different permutations sizes.}}{17}}
\newlabel{fig:app_all}{{7}{17}}
\@writefile{toc}{\contentsline {section}{\numberline {5}Conclusions}{17}}
\bibstyle{abbrv}
\bibdata{report}
\bibcite{bader2001linear}{1}
\bibcite{bafna1996genome}{2}
\bibcite{bafna1998sorting}{3}
\bibcite{berman20021}{4}
\bibcite{berman1999some}{5}
\@writefile{lof}{\contentsline {figure}{\numberline {8}{\ignorespaces Maximum Approximation Factor for each algorithm for different permutations sizes, with \textbf  {TRANS} algorithm result removed for better visualization}}{18}}
\newlabel{fig:app}{{8}{18}}
\bibcite{bulteau2012sorting}{6}
\bibcite{caprara1997sorting}{7}
\bibcite{caprara1999sorting}{8}
\bibcite{chen2013sorting}{9}
\bibcite{christie19983}{10}
\bibcite{christie1998genome}{11}
\bibcite{dias2014improved}{12}
\bibcite{elias20061}{13}
\bibcite{hannenhalli1995transforming}{14}
\bibcite{kececioglu1995exact}{15}
\bibcite{lin2004further}{16}
\bibcite{oliveira2015problema}{17}
\bibcite{rahman2008approximation}{18}
\bibcite{tannier2007advances}{19}
\bibcite{tesler2002grimm}{20}
\bibcite{walter1998reversal}{21}
